{
  "name": "cof",
  "title": "Cards Opposing Foundry",
  "description": "Play cards like the truly awful specimens of humanity you are.",
  "version": "0.001",
  "minimumCoreVersion": "9",
  "compatibleCoreVersion": "9",
  "authors": [
    {
      "name": "Anathema",
      "email": "sm.anathema@gmail.com",
      "url": "https://gitlab.com/anathemamask/cof/"
    }
  ],
  "esmodules": ["cof.mjs"],
  "scripts": [],
  "styles": ["ui/cof.css"],
  "packs": [
    {
      "label": "The 'I Screwed Up' Backup Deck ",
      "type": "Cards",
      "name": "cof-backup",
      "path": "packs/cof-backup.db",
      "system": "cof"
    }
  ],
  "languages": [],
  "gridDistance": 1,
  "gridUnits": "sq",
  "primaryTokenAttribute": "hp",
  "secondaryTokenAttribute": "wp",
  "url": "https://gitlab.com/anathemamask/farrago/",
  "manifest": "https://gitlab.com/anathemamask/farrago/-/raw/master/src/system.json",
  "download": ""
}
